Chapter 5B – Lifetime Data Analysis I
…
Homework

Obtain the expressions of Wald-type and LRT based \(100(1-\alpha)\%\) confidence intervals of \(y_p\)

Example 5.3.1

Data are available on lifetimes (in thousand miles) of 96 locomotive controls, of which were failed.

The test was terminated after \(135K\) miles, so 59 lifetimes were censored at \(135K\).

dat_ex531

# A tibble: 96 × 2
    time status
   <dbl>  <int>
 1  22.5      1
 2  37.5      1
 3  46        1
 4  48.5      1
 5  51.5      1
 6  53        1
 7  54.5      1
 8  57.5      1
 9  66.5      1
10  68        1
# ℹ 86 more rows
…
Homework

Obtain the expressions of Wald-type and LRT based \(100(1-\alpha)\%\) confidence intervals of \(y_p\)

Example 5.3.1

Data are available on lifetimes (in thousand miles) of 96 locomotive controls, of which were failed.

The test was terminated after \(135K\) miles, so 59 lifetimes were censored at \(135K\).

dat_ex531

# A tibble: 96 × 2
    time status
   <dbl>  <int>
 1  22.5      1
 2  37.5      1
 3  46        1
 4  48.5      1
 5  51.5      1
 6  53        1
 7  54.5      1
 8  57.5      1
 9  66.5      1
10  68        1
# ℹ 86 more rows
…
