{survival} package – Lifetime Data Analysis I
…
Overall
23 (13, —)

Stratified fit: effect of treatment

mod2 <- survfit(
  Surv(time = time, event = status) ~ drug,
  data = gehan65,
  conf.type = "plain"
)

broom::tidy(mod2) %>% select(time, estimate, strata)

# A tibble: 28 × 3
    time estimate strata   
   <dbl>    <dbl> <chr>    
 1     6    0.857 drug=6-MP
 2     7    0.807 drug=6-MP
 3     9    0.807 drug=6-MP
 4    10    0.753 drug=6-MP
 5    11    0.753 drug=6-MP
 6    13    0.690 drug=6-MP
 7    16    0.627 drug=6-MP
 8    17    0.627 drug=6-MP
 9    19    0.627 drug=6-MP
10    20    0.627 drug=6-MP
# ℹ 18 more rows
…
